Data Visualization with R - Weeks 8, 9, and 10 tips and FAQs
…
There is a confidence interval, it’s just really tiny! That’s because of how these variables are measured in the data. Each county has a dollar amount recorded for rent and income:

results_2016 %>% 
  select(state, county, per_capita_income, median_rent)
## # A tibble: 3,158 × 4
##    state   county   per_capita_income median_rent
##    <chr>   <chr>                <dbl>       <dbl>
##  1 Alabama Autauga              24571         668
##  2 Alabama Baldwin              26766         693
##  3 Alabama Barbour              16829         382
##  4 Alabama Bibb                 17427         351
##  5 Alabama Blount               20730         403
##  6 Alabama Bullock              18628         276
##  7 Alabama Butler               17403         331
##  8 Alabama Calhoun              20828         422
##  9 Alabama Chambers             19291         374
## 10 Alabama Cherokee             22030         375
## # ℹ 3,148 more rows

When looking at the regression coefficient, we interpret then using single dollars. We’d say something like “A $1 increase in per capita income is associated with a 0.00027 percentage point increase in Democratic vote share, on average.”

Talking about $1 changes, though, is weird because that kind of change in income really isn’t detectable. That’d be like looking at what happens to voting patterns if income in a county goes from $30,000 to $30,001 or $65,000 to $65,001. Nothing’s going to happen to voting patterns! If the original democratic vote share was 60%, a $1 increase in income would increase that by 0.00027 percentage points to 60.00027%.

To make that coefficient more interpretable we can scale down the income column and think of it as hundreds or thousands of dollars instead. We can do that by making a new column in the data…

results_2016 <- results_2016 %>% 
  mutate(per_capita_income_1000 = per_capita_income / 1000)

results_2016 %>% 
  select(state, county, per_capita_income_1000, per_capita_income)
## # A tibble: 3,158 × 4
##    state   county   per_capita_income_1000 per_capita_income
##    <chr>   <chr>                     <dbl>             <dbl>
##  1 Alabama Autauga                    24.6             24571
##  2 Alabama Baldwin                    26.8             26766
##  3 Alabama Barbour                    16.8             16829
##  4 Alabama Bibb                       17.4             17427
##  5 Alabama Blount                     20.7             20730
##  6 Alabama Bullock                    18.6             18628
##  7 Alabama Butler                     17.4             17403
##  8 Alabama Calhoun                    20.8             20828
##  9 Alabama Chambers                   19.3             19291
## 10 Alabama Cherokee                   22.0             22030
## # ℹ 3,148 more rows
…
