Data Visualization with R - Weeks 11, 12, and 13 tips and FAQs
…
We’ll make a similar skeleton with all the countries in the map and all the years we care about in gapminder. We’ll just show two panels—1952 and 2007—so we’ll make a little filtered dataset first. Then we’ll use expand_grid() to make a dataset with all those combinations: Afghanistan 1952, Afghanistan 2007, Albania 1952, Albania 2007, and so on:

gapminder_smaller <- gapminder_clean %>%
  filter(year %in% c(1952, 2007))

skeleton <- expand_grid(ISO3 = unique(world_map$ISO3),
                        year = unique(gapminder_smaller$year))
skeleton
## # A tibble: 352 × 2
##    ISO3   year
##    <chr> <int>
##  1 FJI    1952
##  2 FJI    2007
##  3 TZA    1952
##  4 TZA    2007
##  5 SAH    1952
##  6 SAH    2007
##  7 CAN    1952
##  8 CAN    2007
##  9 USA    1952
## 10 USA    2007
## # ℹ 342 more rows
…
Next we can join in the gapminder data for each country and year, and join in the map data for each country. Notice how it has the same number of rows as skeleton (352). If a country doesn’t have gapminder data (like Fiji here), it gets an NA for lifeExp and pop and gdpPercap. But it still has map data for both 1952 and 2007, so it’ll show up in a plot.

full_gapminder_map <- skeleton %>% 
  left_join(gapminder_smaller, by = join_by(ISO3, year)) %>%
  left_join(world_map, by = join_by(ISO3)) %>% 
  # The geometry column lost its magic powers after joining, so add it back
  st_set_geometry("geometry")
full_gapminder_map
## Simple feature collection with 352 features and 175 fields
## Geometry type: MULTIPOLYGON
## Dimension:     XY
## Bounding box:  xmin: -180 ymin: -55.61183 xmax: 180 ymax: 83.64513
## Geodetic CRS:  WGS 84
## # A tibble: 352 × 176
##    ISO3   year country  continent lifeExp     pop gdpPercap featurecla scalerank
##    <chr> <int> <fct>    <fct>       <dbl>   <int>     <dbl> <chr>          <int>
##  1 FJI    1952 <NA>     <NA>         NA   NA            NA  Admin-0 c…         1
##  2 FJI    2007 <NA>     <NA>         NA   NA            NA  Admin-0 c…         1
##  3 TZA    1952 Tanzania Africa       41.2  8.32e6      717. Admin-0 c…         1
##  4 TZA    2007 Tanzania Africa       52.5  3.81e7     1107. Admin-0 c…         1
##  5 SAH    1952 <NA>     <NA>         NA   NA            NA  Admin-0 c…         1
##  6 SAH    2007 <NA>     <NA>         NA   NA            NA  Admin-0 c…         1
##  7 CAN    1952 Canada   Americas     68.8  1.48e7    11367. Admin-0 c…         1
##  8 CAN    2007 Canada   Americas     80.7  3.34e7    36319. Admin-0 c…         1
##  9 USA    1952 United … Americas     68.4  1.58e8    13990. Admin-0 c…         1
## 10 USA    2007 United … Americas     78.2  3.01e8    42952. Admin-0 c…         1
## # ℹ 342 more rows
## # ℹ 167 more variables: LABELRANK <int>, SOVEREIGNT <chr>, SOV_A3 <chr>,
## #   ADM0_DIF <int>, LEVEL <int>, TYPE <chr>, TLC <chr>, ADMIN <chr>,
## #   ADM0_A3 <chr>, GEOU_DIF <int>, GEOUNIT <chr>, GU_A3 <chr>, SU_DIF <int>,
## #   SUBUNIT <chr>, SU_A3 <chr>, BRK_DIFF <int>, NAME <chr>, NAME_LONG <chr>,
## #   BRK_A3 <chr>, BRK_NAME <chr>, BRK_GROUP <chr>, ABBREV <chr>, POSTAL <chr>,
## #   FORMAL_EN <chr>, FORMAL_FR <chr>, NAME_CIAWF <chr>, NOTE_ADM0 <chr>, …
…
  drop_na(text) %>% 
  unnest_tokens(word, text) %>% 
  # Remove stop words
  anti_join(stop_words) %>% 
  # Get rid of old timey words and stage directions
  filter(!(word %in% c("thou", "thy", "haue", "thee", 
                      "thine", "enter", "exeunt", "exit"))) %>% 
  # Count all the words in each play
  count(title, word, sort = TRUE) %>% 
  # Keep top 15 in each play
  group_by(title) %>% 
  top_n(15) %>% 
  ungroup()
top_words_tragedies
## # A tibble: 62 × 3
##    title                     word           n
##    <chr>                     <chr>      <int>
##  1 Hamlet, Prince of Denmark hamlet       461
##  2 Romeo and Juliet          romeo        300
##  3 Macbeth                   macbeth      282
##  4 The Tragedy of King Lear  lear         229
##  5 Hamlet, Prince of Denmark lord         223
##  6 Hamlet, Prince of Denmark king         196
##  7 Romeo and Juliet          juliet       178
##  8 The Tragedy of King Lear  kent         170
##  9 The Tragedy of King Lear  gloucester   169
## 10 Hamlet, Prince of Denmark horatio      156
## # ℹ 52 more rows
…
But that’s wrong!

Instead of using fct_inorder(), we need to use reorder_within() and tell it to sort the words by count within each play:

top_words_tragedies_order_right <- top_words_tragedies %>%
  # Make the words an ordered factor so they plot in order
  mutate(word = reorder_within(word, n, title)) 

top_words_tragedies_order_right
## # A tibble: 62 × 3
##    title                     word                                      n
##    <chr>                     <fct>                                 <int>
##  1 Hamlet, Prince of Denmark hamlet___Hamlet, Prince of Denmark      461
##  2 Romeo and Juliet          romeo___Romeo and Juliet                300
##  3 Macbeth                   macbeth___Macbeth                       282
##  4 The Tragedy of King Lear  lear___The Tragedy of King Lear         229
##  5 Hamlet, Prince of Denmark lord___Hamlet, Prince of Denmark        223
##  6 Hamlet, Prince of Denmark king___Hamlet, Prince of Denmark        196
##  7 Romeo and Juliet          juliet___Romeo and Juliet               178
##  8 The Tragedy of King Lear  kent___The Tragedy of King Lear         170
##  9 The Tragedy of King Lear  gloucester___The Tragedy of King Lear   169
## 10 Hamlet, Prince of Denmark horatio___Hamlet, Prince of Denmark     156
## # ℹ 52 more rows
…
