Data Visualization with R - Text
…
  # Remove stop words
  anti_join(stop_words) %>% 
  # Get rid of old timey words and stage directions
  filter(!(word %in% c("thou", "thy", "haue", "thee", 
                      "thine", "enter", "exeunt", "exit"))) %>% 
  # Count all the words in each play
  count(title, word, sort = TRUE) %>% 
  # Keep top 15 in each play
  group_by(title) %>% 
  top_n(15) %>% 
  ungroup() %>% 
  # Make the words an ordered factor so they plot in order
  mutate(word = fct_inorder(word))
top_words_tragedies
## # A tibble: 62 × 3
##    title                     word           n
##    <chr>                     <fct>      <int>
##  1 Hamlet, Prince of Denmark hamlet       461
##  2 Romeo and Juliet          romeo        300
##  3 Macbeth                   macbeth      282
##  4 The Tragedy of King Lear  lear         229
##  5 Hamlet, Prince of Denmark lord         223
##  6 Hamlet, Prince of Denmark king         196
##  7 Romeo and Juliet          juliet       178
##  8 The Tragedy of King Lear  kent         170
##  9 The Tragedy of King Lear  gloucester   169
## 10 Hamlet, Prince of Denmark horatio      156
## # ℹ 52 more rows
…
  drop_na(text) %>% 
  # n = 2 here means bigrams. We could also make trigrams (n = 3) or any type of n-gram
  unnest_tokens(bigram, text, token = "ngrams", n = 2) %>% 
  # Get rid of NAs in the new bigram column
  drop_na(bigram) %>% 
  # Split the bigrams into two words so we can remove stopwords
  separate(bigram, c("word1", "word2"), sep = " ") %>% 
  filter(!word1 %in% stop_words$word,
         !word2 %in% stop_words$word) %>% 
  filter(!word1 %in% c("thou", "thy", "thine", "enter", "exeunt", "exit"),
         !word2 %in% c("thou", "thy", "thine", "enter", "exeunt", "exit")) %>% 
  # Put the two word columns back together
  unite(bigram, word1, word2, sep = " ")
tragedies_bigrams
## # A tibble: 10,829 × 3
##    gutenberg_id title            bigram             
##           <int> <chr>            <chr>              
##  1         1513 Romeo and Juliet william shakespeare
##  2         1513 Romeo and Juliet scene ii           
##  3         1513 Romeo and Juliet scene iii          
##  4         1513 Romeo and Juliet capulet’s house    
##  5         1513 Romeo and Juliet scene iv           
##  6         1513 Romeo and Juliet capulet’s house    
##  7         1513 Romeo and Juliet act ii             
##  8         1513 Romeo and Juliet adjoining capulet’s
##  9         1513 Romeo and Juliet capulet’s garden   
## 10         1513 Romeo and Juliet scene ii           
## # ℹ 10,819 more rows
…
Not surprisingly, the most unique words for each play happen to be the names of the characters in those plays.

Sentiment analysis

In the video, I plotted the sentiment of Little Women across the book, but it wasn’t a very interesting plot. We’ll try with Shakespeare here instead.

At its core, sentiment analysis involves looking at a big list of words for how negative or positive they are. Some sentiment dictionaries mark if a word is “negative” or “positive”; some give words a score from -3 to 3; some give different emotions like “sadness” or “anger”. You can see what the different dictionaries look like with get_sentiments()

Code

get_sentiments("afinn")  # Scoring system
## # A tibble: 2,477 × 2
##    word       value
##    <chr>      <dbl>
##  1 abandon       -2
##  2 abandoned     -2
##  3 abandons      -2
##  4 abducted      -2
##  5 abduction     -2
##  6 abductions    -2
##  7 abhor         -3
##  8 abhorred      -3
##  9 abhorrent     -3
## 10 abhors        -3
## # ℹ 2,467 more rows
…
tragedy_words <- tragedies_raw %>% 
  drop_na() %>% 
  # Split into word tokens
  unnest_tokens(word, text) %>% 
  # Remove stop words and old timey words
  anti_join(stop_words) %>% 
  filter(!word %in% c("thou", "thy", "haue", "thee", 
                      "thine", "enter", "exeunt", "exit"))

# Join the sentiment dictionary 
tragedy_sentiment <- tragedy_words %>% 
  inner_join(get_sentiments("bing"), relationship = "many-to-many")
tragedy_sentiment
## # A tibble: 7,637 × 4
##    gutenberg_id title            word       sentiment
##           <int> <chr>            <chr>      <chr>    
##  1         1513 Romeo and Juliet tragedy    negative 
##  2         1513 Romeo and Juliet dignity    positive 
##  3         1513 Romeo and Juliet fair       positive 
##  4         1513 Romeo and Juliet grudge     negative 
##  5         1513 Romeo and Juliet break      negative 
##  6         1513 Romeo and Juliet unclean    negative 
##  7         1513 Romeo and Juliet fatal      negative 
##  8         1513 Romeo and Juliet overthrows negative 
##  9         1513 Romeo and Juliet death      negative 
## 10         1513 Romeo and Juliet strife     negative 
## # ℹ 7,627 more rows
…
# combine all the text into individual chapter-based rows. This takes a little
# bit of text-wrangling with dplyr:
little_women_to_tag <- little_women %>% 
  # Group by chapter number
  group_by(chapter_number) %>% 
  # Take all the rows in each chapter and collapse them into a single cell
  nest(data = c(text)) %>% 
  ungroup() %>% 
  # Look at each individual cell full of text lines and paste them together into
  # one really long string of text per chapter
  mutate(text = map_chr(data, ~paste(.$text, collapse = " "))) %>% 
  # Get rid of this column
  select(-data)
little_women_to_tag
## # A tibble: 47 × 2
##    chapter_number text                                                                                                                                
##             <int> <chr>                                                                                                                               
##  1              1 "CHAPTER ONE PLAYING PILGRIMS   “Christmas won’t be Christmas without any presents,” grumbled Jo, lying on the rug.  “It’s so dread…
##  2              2 "CHAPTER TWO A MERRY CHRISTMAS   Jo was the first to wake in the gray dawn of Christmas morning. No stockings hung at the fireplace…
##  3              3 "CHAPTER THREE THE LAURENCE BOY   “Jo! Jo! Where are you?” cried Meg at the foot of the garret stairs.  “Here!” answered a husky vo…
##  4              4 "CHAPTER FOUR BURDENS   “Oh, dear, how hard it does seem to take up our packs and go on,” sighed Meg the morning after the party, f…
##  5              5 "CHAPTER FIVE BEING NEIGHBORLY   “What in the world are you going to do now, Jo?” asked Meg one snowy afternoon, as her sister came…
##  6              6 "CHAPTER SIX BETH FINDS THE PALACE BEAUTIFUL   The big house did prove a Palace Beautiful, though it took some time for all to get …
##  7              7 "CHAPTER SEVEN AMY’S VALLEY OF HUMILIATION   “That boy is a perfect cyclops, isn’t he?” said Amy one day, as Laurie clattered by on…
##  8              8 "CHAPTER EIGHT JO MEETS APOLLYON   “Girls, where are you going?” asked Amy, coming into their room one Saturday afternoon, and find…
##  9              9 "CHAPTER NINE MEG GOES TO VANITY FAIR   “I do think it was the most fortunate thing in the world that those children should have th…
## 10             10 "CHAPTER TEN THE P.C. AND P.O.   As spring came on, a new set of amusements became the fashion, and the lengthening days gave long …
## # ℹ 37 more rows
…
# Save the tagged token dataframe so we don't have to run this again
write_csv(little_women_tagged_raw$token, "data/little_women_tagged.csv")

# Load the tagged tokens
little_women_tagged <- read_csv("data/little_women_tagged.csv")

Here’s what the tagged text looks like:

Code

little_women_tagged
## # A tibble: 231,564 × 10
##    doc_id   sid   tid token       token_with_ws lemma       upos  xpos  tid_source relation
##     <int> <int> <int> <chr>       <chr>         <chr>       <chr> <chr>      <int> <chr>   
##  1      1     1     1 "CHAPTER"   "CHAPTER "    "chapter"   NOUN  NN             4 nmod    
##  2      1     1     2 "ONE"       "ONE "        "one"       NUM   CD             1 nummod  
##  3      1     1     3 "PLAYING"   "PLAYING "    "playing"   NOUN  NN             4 compound
##  4      1     1     4 "PILGRIMS"  "PILGRIMS "   "PILGRIMS"  PROPN NNP           10 npadvmod
##  5      1     1     5 "  "        "  "          "  "        SPACE _SP            4 dep     
##  6      1     1     6 "“"         "“"           "\""        PUNCT ``            10 punct   
##  7      1     1     7 "Christmas" "Christmas "  "Christmas" PROPN NNP           10 nsubj   
##  8      1     1     8 "wo"        "wo"          "will"      AUX   MD            10 aux     
##  9      1     1     9 "n’t"       "n’t "        "not"       PART  RB            10 neg     
## 10      1     1    10 "be"        "be "         "be"        AUX   VB            17 ccomp   
## # ℹ 231,554 more rows
…
  summarize(n = n()) %>% 
  # Make a new column named "name" that is an ordered factor of the girls' names
  mutate(name = factor(lemma, levels = c("Meg", "Jo", "Beth", "Amy"), ordered = TRUE)) %>% 
  # Rename this so it's called chapter
  rename(chapter = doc_id) %>% 
  # Group by chapter
  group_by(chapter) %>% 
  # Calculate the proportion of each girl's mentions in each chapter
  mutate(prop = n / sum(n)) %>% 
  ungroup() %>% 
  # Make a cleaner chapter name column
  mutate(chapter_name = paste("Chapter", chapter)) %>% 
  mutate(chapter_name = fct_inorder(chapter_name))
main_characters_by_chapter
## # A tibble: 177 × 6
##    chapter lemma     n name   prop chapter_name
##      <int> <chr> <int> <ord> <dbl> <fct>       
##  1       1 Amy      22 Amy   0.188 Chapter 1   
##  2       1 Beth     26 Beth  0.222 Chapter 1   
##  3       1 Jo       43 Jo    0.368 Chapter 1   
##  4       1 Meg      26 Meg   0.222 Chapter 1   
##  5       2 Amy      13 Amy   0.197 Chapter 2   
##  6       2 Beth     12 Beth  0.182 Chapter 2   
##  7       2 Jo       21 Jo    0.318 Chapter 2   
##  8       2 Meg      20 Meg   0.303 Chapter 2   
##  9       3 Amy       2 Amy   0.02  Chapter 3   
## 10       3 Beth      2 Beth  0.02  Chapter 3   
## # ℹ 167 more rows
…
