Data Visualization with R - Week 7 tips and FAQs
…
state_details <- tibble(
  state = state.name,
  state_abb = state.abb,
  state_division = state.division,
  state_region = state.region
) %>% 
  # Add DC manually
  add_row(
    state = "Washington, DC",
    state_abb = "DC",
    state_division = "South Atlantic",
    state_region = "South"
  )
state_details
## # A tibble: 51 × 4
##    state       state_abb state_division     state_region
##    <chr>       <chr>     <chr>              <chr>       
##  1 Alabama     AL        East South Central South       
##  2 Alaska      AK        Pacific            West        
##  3 Arizona     AZ        Mountain           West        
##  4 Arkansas    AR        West South Central South       
##  5 California  CA        Pacific            West        
##  6 Colorado    CO        Mountain           West        
##  7 Connecticut CT        New England        Northeast   
##  8 Delaware    DE        South Atlantic     South       
##  9 Florida     FL        South Atlantic     South       
## 10 Georgia     GA        South Atlantic     South       
## # ℹ 41 more rows
…
