Data Visualization with R - Week 4 FAQs
…
At the end of exercise 4, you created a heatmap showing the proportions of different types of construction projects across different boroughs. In the instructions, I said you’d need to use group_by() twice to get predictable proportions. Some of you have wondered what this means. Here’s a quick illustration.

When you group by a column, R splits your data into separate datasets behind the scenes, and when you use summarize(), it calculates summary statistics (averages, counts, medians, etc.) for each of those groups. So when you used group_by(BOROUGH, CATEGORY), R made smaller datasets of Bronx Affordable Housing, Bronx Approved Work, Brooklyn Affordable Housing, Brooklyn Approved Work, and so on. Then when you used summarize(total = n()), you calculated the number of rows in each of those groups, thus giving you the number of projects per borough per category. That’s basic group_by() %>% summarize() stuff.

Once you have a count of projects per borough, you have to decide how you want to calculate proportions. In particular, you need to figure out what your denominator is. Do you want the proportion of all projects within each borough (e.g. X% of projects in the Bronx are affordable housing, Y% in the Bronx are approved work, and so on until 100% of the projects in the Bronx are accounted for), so that each borough constitutes 100%? Do you want the proportion of boroughs for each project (e.g. X% of affordable housing projects are in the Bronx, Y% of affordable housing projects are in Brooklyn, and so on until 100% of the affordable housing projects are accounted for). This is where the second group_by() matters.

For example, if you group by borough and then use mutate to calculate the proportion, the proportion in each borough will add up to 100%. Notice the denominator column here—it’s unique to each borough (1169 for the Bronx, 2231 for Brooklyn, etc.).

essential %>%
  group_by(BOROUGH, CATEGORY) %>%
  summarize(totalprojects = n()) %>%
  group_by(BOROUGH) %>%
  mutate(denominator = sum(totalprojects),
         proportion = totalprojects / denominator)
#> # A tibble: 33 × 5
#> # Groups:   BOROUGH [5]
#>    BOROUGH  CATEGORY               totalprojects denominator proportion
#>    <fct>    <fct>                          <int>       <int>      <dbl>
#>  1 Bronx    Affordable Housing                80        1169   0.0684  
#>  2 Bronx    Approved Work                    518        1169   0.443   
#>  3 Bronx    Homeless Shelter                   1        1169   0.000855
#>  4 Bronx    Hospital / Health Care            55        1169   0.0470  
#>  5 Bronx    Public Housing                   276        1169   0.236   
#>  6 Bronx    Schools                          229        1169   0.196   
#>  7 Bronx    Utility                           10        1169   0.00855 
#>  8 Brooklyn Affordable Housing               168        2231   0.0753  
#>  9 Brooklyn Approved Work                   1223        2231   0.548   
#> 10 Brooklyn Hospital / Health Care            66        2231   0.0296  
#> # … with 23 more rows

If you group by category instead, the proportion within each category will add to 100%. Notice how the denominator for affordable housing is 372, approved work is 4189, and so on.

essential %>%
  group_by(BOROUGH, CATEGORY) %>%
  summarize(totalprojects = n()) %>%
  group_by(CATEGORY) %>%
  mutate(denominator = sum(totalprojects),
         proportion = totalprojects / denominator)
#> # A tibble: 33 × 5
#> # Groups:   CATEGORY [7]
#>    BOROUGH  CATEGORY               totalprojects denominator proportion
#>    <fct>    <fct>                          <int>       <int>      <dbl>
#>  1 Bronx    Affordable Housing                80         372      0.215
#>  2 Bronx    Approved Work                    518        4189      0.124
#>  3 Bronx    Homeless Shelter                   1           5      0.2  
#>  4 Bronx    Hospital / Health Care            55         259      0.212
#>  5 Bronx    Public Housing                   276        1014      0.272
#>  6 Bronx    Schools                          229        1280      0.179
#>  7 Bronx    Utility                           10          90      0.111
#>  8 Brooklyn Affordable Housing               168         372      0.452
#>  9 Brooklyn Approved Work                   1223        4189      0.292
#> 10 Brooklyn Hospital / Health Care            66         259      0.255
#> # … with 23 more rows

You can also ungroup completely before calculating the proportion. This makes it so the entire proportion column adds to 100%:

essential %>%
  group_by(BOROUGH, CATEGORY) %>%
  summarize(totalprojects = n()) %>%
  ungroup() %>%
  mutate(denominator = sum(totalprojects),
         proportion = totalprojects / denominator)
#> # A tibble: 33 × 5
#>    BOROUGH  CATEGORY               totalprojects denominator proportion
#>    <fct>    <fct>                          <int>       <int>      <dbl>
#>  1 Bronx    Affordable Housing                80        7209   0.0111  
#>  2 Bronx    Approved Work                    518        7209   0.0719  
#>  3 Bronx    Homeless Shelter                   1        7209   0.000139
#>  4 Bronx    Hospital / Health Care            55        7209   0.00763 
#>  5 Bronx    Public Housing                   276        7209   0.0383  
#>  6 Bronx    Schools                          229        7209   0.0318  
#>  7 Bronx    Utility                           10        7209   0.00139 
#>  8 Brooklyn Affordable Housing               168        7209   0.0233  
#>  9 Brooklyn Approved Work                   1223        7209   0.170   
#> 10 Brooklyn Hospital / Health Care            66        7209   0.00916 
#> # … with 23 more rows
…
