Data Visualization with R - Mini project 1 feedback
…
Warnings and messages

Your knitted document has warnings and package loading messages.

You should turn off those warnings and messages. See this and this for more about how.

ALL CAPS

Consider converting the borough names to NOT ALL CAPS, since you don’t repeat all caps anywhere else

In the data, the borough names are all spelled with ALL CAPS:

rats_clean %>% 
  select(created_date, borough)
## # A tibble: 101,913 × 2
##    created_date        borough      
##    <dttm>              <chr>        
##  1 2015-09-04 00:00:00 MANHATTAN    
##  2 2015-09-04 00:00:00 STATEN ISLAND
##  3 2015-09-04 00:00:00 STATEN ISLAND
##  4 2015-09-04 00:00:00 BROOKLYN     
##  5 2015-09-04 00:00:00 BRONX        
##  6 2015-09-04 00:00:00 BROOKLYN     
##  7 2015-09-04 00:00:00 QUEENS       
##  8 2015-09-04 00:00:00 BROOKLYN     
##  9 2015-09-04 00:00:00 MANHATTAN    
## 10 2015-09-04 00:00:00 STATEN ISLAND
## # ℹ 101,903 more rows
You can convert that to not all caps with one of two functions from the {stringr} package (which is one of the nine that R loads when you run library(tidyverse)): str_to_title() changes text to title case (where each word is capitalized) while str_to_sentence() changes text to sentence case (where the first letter in a sentence is capitalized):

str_to_title("OH NO! RATS IN NEW YORK")
## [1] "Oh No! Rats In New York"
str_to_sentence("OH NO! RATS IN NEW YORK")
## [1] "Oh no! Rats in new york"

You can use it with mutate():

rats_clean <- rats_clean %>% 
  mutate(borough = str_to_title(borough))

rats_clean %>% 
  select(created_date, borough)
## # A tibble: 101,913 × 2
##    created_date        borough      
##    <dttm>              <chr>        
##  1 2015-09-04 00:00:00 Manhattan    
##  2 2015-09-04 00:00:00 Staten Island
##  3 2015-09-04 00:00:00 Staten Island
##  4 2015-09-04 00:00:00 Brooklyn     
##  5 2015-09-04 00:00:00 Bronx        
##  6 2015-09-04 00:00:00 Brooklyn     
##  7 2015-09-04 00:00:00 Queens       
##  8 2015-09-04 00:00:00 Brooklyn     
##  9 2015-09-04 00:00:00 Manhattan    
## 10 2015-09-04 00:00:00 Staten Island
## # ℹ 101,903 more rows
…
