Data Visualization with R - Space
…
puerto_rico_data
## # A tibble: 3 × 4
##   state unemployment population  year
##   <chr>        <dbl>      <dbl> <dbl>
## 1 PR             3.1        150  2018
## 2 PR             3.2        250  2019
## 3 PR             3.3        350  2020

state_regions
## # A tibble: 51 × 2
##    region    state
##    <chr>     <chr>
##  1 West      AK   
##  2 South     AL   
##  3 South     AR   
##  4 West      AZ   
##  5 West      CA   
##  6 West      CO   
##  7 Northeast CT   
##  8 South     DC   
##  9 South     DE   
## 10 South     FL   
## # ℹ 41 more rows
…
Left joining is also often surprisingly helpful for recoding lots of variables. Right now in our fake national data, we have a column for state, but it would be nice if we could have a column for region so we could facet or fill or color by region in a plot. Hunting around on the internet, you find this dataset that has a column for state and a column for abbreviations:

state_regions
## # A tibble: 51 × 2
##    region    state
##    <chr>     <chr>
##  1 West      AK   
##  2 South     AL   
##  3 South     AR   
##  4 West      AZ   
##  5 West      CA   
##  6 West      CO   
##  7 Northeast CT   
##  8 South     DC   
##  9 South     DE   
## 10 South     FL   
## # ℹ 41 more rows
…
It’s good practice to be specific about the columns you want and actually use by, but I will often run left_join() without it and then copy the message that it generates (“by = c("state", "year")”) and paste it into my code.

But what if the column names don’t match? Let’s rename the state column in our state/region table for fun:

state_regions_different <- state_regions %>% 
  rename(ST = state)
state_regions_different
## # A tibble: 51 × 2
##    region    ST   
##    <chr>     <chr>
##  1 West      AK   
##  2 South     AL   
##  3 South     AR   
##  4 West      AZ   
##  5 West      CA   
##  6 West      CO   
##  7 Northeast CT   
##  8 South     DC   
##  9 South     DE   
## 10 South     FL   
## # ℹ 41 more rows
…
right_join()

Once again, go to this page in a new tab and watch the animation.

right_join() works exactly like left_join(), but in reverse. The second dataset is the base data. Any rows in the second dataset that don’t match in the first will be kept, and any rows from the first that don’t match will get thrown away.

Watch what happens if we right join national_data and state_regions:

national_data %>% 
  right_join(state_regions, by = "state")
## # A tibble: 57 × 6
##    state  year unemployment inflation population region
##    <chr> <dbl>        <dbl>     <dbl>      <dbl> <chr> 
##  1 GA     2018          5         2          100 South 
##  2 GA     2019          5.3       1.8        200 South 
##  3 GA     2020          5.2       2.5        300 South 
##  4 NC     2018          6.1       1.8        350 South 
##  5 NC     2019          5.9       1.6        375 South 
##  6 NC     2020          5.3       1.8        400 South 
##  7 CO     2018          4.7       2.7        200 West  
##  8 CO     2019          4.4       2.6        300 West  
##  9 CO     2020          5.1       2.5        400 West  
## 10 AK       NA         NA        NA           NA West  
## # ℹ 47 more rows
…
