Data Visualization with R - Amounts and proportions
…
# This works, but is tedious
filter(gapminder, 
       country == "Mexico" | country == "Canada" | country == "United States")

# This is more concise and easier to add other countries later
filter(gapminder, 
       country %in% c("Mexico", "Canada", "United States"))

Adding new columns with mutate()

You create new columns with the mutate() function. You can create a single column like this:

mutate(gapminder, gdp = gdpPercap * pop)
## # A tibble: 1,704 × 7
##    country     continent  year lifeExp      pop gdpPercap          gdp
##    <fct>       <fct>     <int>   <dbl>    <int>     <dbl>        <dbl>
##  1 Afghanistan Asia       1952    28.8  8425333      779.  6567086330.
##  2 Afghanistan Asia       1957    30.3  9240934      821.  7585448670.
##  3 Afghanistan Asia       1962    32.0 10267083      853.  8758855797.
##  4 Afghanistan Asia       1967    34.0 11537966      836.  9648014150.
##  5 Afghanistan Asia       1972    36.1 13079460      740.  9678553274.
##  6 Afghanistan Asia       1977    38.4 14880372      786. 11697659231.
##  7 Afghanistan Asia       1982    39.9 12881816      978. 12598563401.
##  8 Afghanistan Asia       1987    40.8 13867957      852. 11820990309.
##  9 Afghanistan Asia       1992    41.7 16317921      649. 10595901589.
## 10 Afghanistan Asia       1997    41.8 22227415      635. 14121995875.
## # ℹ 1,694 more rows

And you can create multiple columns by including a comma-separated list of new columns to create:

mutate(gapminder, gdp = gdpPercap * pop,
                  pop_mill = round(pop / 1000000))
## # A tibble: 1,704 × 8
##    country     continent  year lifeExp      pop gdpPercap          gdp pop_mill
##    <fct>       <fct>     <int>   <dbl>    <int>     <dbl>        <dbl>    <dbl>
##  1 Afghanistan Asia       1952    28.8  8425333      779.  6567086330.        8
##  2 Afghanistan Asia       1957    30.3  9240934      821.  7585448670.        9
##  3 Afghanistan Asia       1962    32.0 10267083      853.  8758855797.       10
##  4 Afghanistan Asia       1967    34.0 11537966      836.  9648014150.       12
##  5 Afghanistan Asia       1972    36.1 13079460      740.  9678553274.       13
##  6 Afghanistan Asia       1977    38.4 14880372      786. 11697659231.       15
##  7 Afghanistan Asia       1982    39.9 12881816      978. 12598563401.       13
##  8 Afghanistan Asia       1987    40.8 13867957      852. 11820990309.       14
##  9 Afghanistan Asia       1992    41.7 16317921      649. 10595901589.       16
## 10 Afghanistan Asia       1997    41.8 22227415      635. 14121995875.       22
## # ℹ 1,694 more rows

You can also do conditional tests within mutate() using the ifelse() function. This works like the =IFELSE function in Excel. Feed the function three arguments: (1) a test, (2) the value if the test is true, and (3) the value if the test is false:

ifelse(TEST, VALUE_IF_TRUE, VALUE_IF_FALSE)

We can create a new column that is a binary indicator for whether the country’s row is after 1960:

mutate(gapminder, after_1960 = ifelse(year > 1960, TRUE, FALSE))
## # A tibble: 1,704 × 7
##    country     continent  year lifeExp      pop gdpPercap after_1960
##    <fct>       <fct>     <int>   <dbl>    <int>     <dbl> <lgl>     
##  1 Afghanistan Asia       1952    28.8  8425333      779. FALSE     
##  2 Afghanistan Asia       1957    30.3  9240934      821. FALSE     
##  3 Afghanistan Asia       1962    32.0 10267083      853. TRUE      
##  4 Afghanistan Asia       1967    34.0 11537966      836. TRUE      
##  5 Afghanistan Asia       1972    36.1 13079460      740. TRUE      
##  6 Afghanistan Asia       1977    38.4 14880372      786. TRUE      
##  7 Afghanistan Asia       1982    39.9 12881816      978. TRUE      
##  8 Afghanistan Asia       1987    40.8 13867957      852. TRUE      
##  9 Afghanistan Asia       1992    41.7 16317921      649. TRUE      
## 10 Afghanistan Asia       1997    41.8 22227415      635. TRUE      
## # ℹ 1,694 more rows

We can also use text labels instead of TRUE and FALSE:

mutate(gapminder, 
       after_1960 = ifelse(year > 1960, "After 1960", "Before 1960"))
## # A tibble: 1,704 × 7
##    country     continent  year lifeExp      pop gdpPercap after_1960 
##    <fct>       <fct>     <int>   <dbl>    <int>     <dbl> <chr>      
##  1 Afghanistan Asia       1952    28.8  8425333      779. Before 1960
##  2 Afghanistan Asia       1957    30.3  9240934      821. Before 1960
##  3 Afghanistan Asia       1962    32.0 10267083      853. After 1960 
##  4 Afghanistan Asia       1967    34.0 11537966      836. After 1960 
##  5 Afghanistan Asia       1972    36.1 13079460      740. After 1960 
##  6 Afghanistan Asia       1977    38.4 14880372      786. After 1960 
##  7 Afghanistan Asia       1982    39.9 12881816      978. After 1960 
##  8 Afghanistan Asia       1987    40.8 13867957      852. After 1960 
##  9 Afghanistan Asia       1992    41.7 16317921      649. After 1960 
## 10 Afghanistan Asia       1997    41.8 22227415      635. After 1960 
## # ℹ 1,694 more rows
…
Notice that summarize() on its own summarizes the whole dataset, so you only get a single row back. These values are the averages and minimums for the entire data frame. If you group your data into separate subgroups, you can use summarize() to calculate summary statistics for each group. Do this with group_by().

The group_by() function puts rows into groups based on values in a column. If you run this:

gapminder %>% group_by(continent)
## # A tibble: 1,704 × 6
## # Groups:   continent [5]
##    country     continent  year lifeExp      pop gdpPercap
##    <fct>       <fct>     <int>   <dbl>    <int>     <dbl>
##  1 Afghanistan Asia       1952    28.8  8425333      779.
##  2 Afghanistan Asia       1957    30.3  9240934      821.
##  3 Afghanistan Asia       1962    32.0 10267083      853.
##  4 Afghanistan Asia       1967    34.0 11537966      836.
##  5 Afghanistan Asia       1972    36.1 13079460      740.
##  6 Afghanistan Asia       1977    38.4 14880372      786.
##  7 Afghanistan Asia       1982    39.9 12881816      978.
##  8 Afghanistan Asia       1987    40.8 13867957      852.
##  9 Afghanistan Asia       1992    41.7 16317921      649.
## 10 Afghanistan Asia       1997    41.8 22227415      635.
## # ℹ 1,694 more rows
…
Finally, you can group by multiple columns and R will create subgroups for every combination of the groups and return the number of rows of combinations. For instance, we can calculate the average life expectancy by both year and continent and we’ll get 60 rows, since there are 5 continents and 12 years (5 × 12 = 60):

gapminder %>% 
  group_by(continent, year) %>% 
  summarize(avg_life_exp = mean(lifeExp)) 
## # A tibble: 60 × 3
## # Groups:   continent [5]
##    continent  year avg_life_exp
##    <fct>     <int>        <dbl>
##  1 Africa     1952         39.1
##  2 Africa     1957         41.3
##  3 Africa     1962         43.3
##  4 Africa     1967         45.3
##  5 Africa     1972         47.5
##  6 Africa     1977         49.6
##  7 Africa     1982         51.6
##  8 Africa     1987         53.3
##  9 Africa     1992         53.6
## 10 Africa     1997         53.6
## # ℹ 50 more rows

Selecting with select()

The last two verbs are far simpler than filter(), mutate(), and group_by() %>% summarize().

You can choose specific columns with the select() verb. This will only keep two columns: lifeExp and year:

gapminder %>% select(lifeExp, year)
## # A tibble: 1,704 × 2
##    lifeExp  year
##      <dbl> <int>
##  1    28.8  1952
##  2    30.3  1957
##  3    32.0  1962
##  4    34.0  1967
##  5    36.1  1972
##  6    38.4  1977
##  7    39.9  1982
##  8    40.8  1987
##  9    41.7  1992
## 10    41.8  1997
## # ℹ 1,694 more rows

You can remove specific columns by prefacing the column names with -, like -lifeExp:

gapminder %>% select(-lifeExp)
## # A tibble: 1,704 × 5
##    country     continent  year      pop gdpPercap
##    <fct>       <fct>     <int>    <int>     <dbl>
##  1 Afghanistan Asia       1952  8425333      779.
##  2 Afghanistan Asia       1957  9240934      821.
##  3 Afghanistan Asia       1962 10267083      853.
##  4 Afghanistan Asia       1967 11537966      836.
##  5 Afghanistan Asia       1972 13079460      740.
##  6 Afghanistan Asia       1977 14880372      786.
##  7 Afghanistan Asia       1982 12881816      978.
##  8 Afghanistan Asia       1987 13867957      852.
##  9 Afghanistan Asia       1992 16317921      649.
## 10 Afghanistan Asia       1997 22227415      635.
## # ℹ 1,694 more rows

You can also rename columns using select(). Follow this pattern: select(old_name = new_name).

gapminder %>% select(year, country, life_expectancy = lifeExp)
## # A tibble: 1,704 × 3
##     year country     life_expectancy
##    <int> <fct>                 <dbl>
##  1  1952 Afghanistan            28.8
##  2  1957 Afghanistan            30.3
##  3  1962 Afghanistan            32.0
##  4  1967 Afghanistan            34.0
##  5  1972 Afghanistan            36.1
##  6  1977 Afghanistan            38.4
##  7  1982 Afghanistan            39.9
##  8  1987 Afghanistan            40.8
##  9  1992 Afghanistan            41.7
## 10  1997 Afghanistan            41.8
## # ℹ 1,694 more rows

Alternatively, there’s a special rename() verb that will, um, rename, while keeping all the other columns:

gapminder %>% rename(life_expectancy = lifeExp)
## # A tibble: 1,704 × 6
##    country     continent  year life_expectancy      pop gdpPercap
##    <fct>       <fct>     <int>           <dbl>    <int>     <dbl>
##  1 Afghanistan Asia       1952            28.8  8425333      779.
##  2 Afghanistan Asia       1957            30.3  9240934      821.
##  3 Afghanistan Asia       1962            32.0 10267083      853.
##  4 Afghanistan Asia       1967            34.0 11537966      836.
##  5 Afghanistan Asia       1972            36.1 13079460      740.
##  6 Afghanistan Asia       1977            38.4 14880372      786.
##  7 Afghanistan Asia       1982            39.9 12881816      978.
##  8 Afghanistan Asia       1987            40.8 13867957      852.
##  9 Afghanistan Asia       1992            41.7 16317921      649.
## 10 Afghanistan Asia       1997            41.8 22227415      635.
## # ℹ 1,694 more rows

Arranging data with arrange()

The arrange() verb sorts data. By default it sorts ascendingly, putting the lowest values first:

gapminder %>% arrange(lifeExp)
## # A tibble: 1,704 × 6
##    country      continent  year lifeExp     pop gdpPercap
##    <fct>        <fct>     <int>   <dbl>   <int>     <dbl>
##  1 Rwanda       Africa     1992    23.6 7290203      737.
##  2 Afghanistan  Asia       1952    28.8 8425333      779.
##  3 Gambia       Africa     1952    30    284320      485.
##  4 Angola       Africa     1952    30.0 4232095     3521.
##  5 Sierra Leone Africa     1952    30.3 2143249      880.
##  6 Afghanistan  Asia       1957    30.3 9240934      821.
##  7 Cambodia     Asia       1977    31.2 6978607      525.
##  8 Mozambique   Africa     1952    31.3 6446316      469.
##  9 Sierra Leone Africa     1957    31.6 2295678     1004.
## 10 Burkina Faso Africa     1952    32.0 4469979      543.
## # ℹ 1,694 more rows

You can reverse that by wrapping the column name with desc():

gapminder %>% arrange(desc(lifeExp))
## # A tibble: 1,704 × 6
##    country          continent  year lifeExp       pop gdpPercap
##    <fct>            <fct>     <int>   <dbl>     <int>     <dbl>
##  1 Japan            Asia       2007    82.6 127467972    31656.
##  2 Hong Kong, China Asia       2007    82.2   6980412    39725.
##  3 Japan            Asia       2002    82   127065841    28605.
##  4 Iceland          Europe     2007    81.8    301931    36181.
##  5 Switzerland      Europe     2007    81.7   7554661    37506.
##  6 Hong Kong, China Asia       2002    81.5   6762476    30209.
##  7 Australia        Oceania    2007    81.2  20434176    34435.
##  8 Spain            Europe     2007    80.9  40448191    28821.
##  9 Sweden           Europe     2007    80.9   9031088    33860.
## 10 Israel           Asia       2007    80.7   6426679    25523.
## # ℹ 1,694 more rows

You can sort by multiple columns by specifying them in a comma separated list. For example, we can sort by continent and then sort by life expectancy within the continents:

gapminder %>% 
  arrange(continent, desc(lifeExp))
## # A tibble: 1,704 × 6
##    country   continent  year lifeExp      pop gdpPercap
##    <fct>     <fct>     <int>   <dbl>    <int>     <dbl>
##  1 Reunion   Africa     2007    76.4   798094     7670.
##  2 Reunion   Africa     2002    75.7   743981     6316.
##  3 Reunion   Africa     1997    74.8   684810     6072.
##  4 Libya     Africa     2007    74.0  6036914    12057.
##  5 Tunisia   Africa     2007    73.9 10276158     7093.
##  6 Reunion   Africa     1992    73.6   622191     6101.
##  7 Tunisia   Africa     2002    73.0  9770575     5723.
##  8 Mauritius Africa     2007    72.8  1250882    10957.
##  9 Libya     Africa     2002    72.7  5368585     9535.
## 10 Algeria   Africa     2007    72.3 33333216     6223.
## # ℹ 1,694 more rows
…
